[
    {
        "name": "Forbes",
        "price": "250",
        "picture": "https://static.yakaboo.ua/media/cloudflare/product/webp/352x340/2/2/22__over.jpg",
        "id": "0001",
        "lang": "ukrainian" 
    },
    {
        "name": "Guide to GoodWine ",
        "price": "80",
        "picture": "https://goodwine.com.ua/media/catalog/product/cache/6fcc3261ae04eb835842842bdcf655db/g/w/gw_35-rgb.jpg?auto=webp&format=pjpg&width=1280&height=1600&fit=cover",
        "id": "0002",
        "lang": "ru" 
    },
    {
        "name": "PRIMA interior",
        "price": "108",
        "picture": "https://book-ye.com.ua/upload/iblock/784/c270d3aa_8b0c_11e6_80c0_000c29ae1566_a099c77e_a633_11ea_8138_000c29ae1566.jpg",
        "id": "0003",
        "lang": "ukrainian" 
    },
    {
        "name": "Вічний мандрівник",
        "price": "151",
        "picture": "https://book-ye.com.ua/upload/resize_cache/iblock/331/520_860_1/44848cae_2484_11ed_8175_0050568ef5e6_d7018202_2484_11ed_8175_0050568ef5e6.jpg",
        "id": "0004",
        "lang": "ukrainian" 
    },
    {
        "name": "Vogue: The Covers",
        "price": "2700",
        "picture": "https://balka-book.com/files/2021/12_12/14_25/u_files_store_29_4658.jpg",
        "id": "0005",
        "lang": "ukrainian" 
    },
    {
        "name": "ELLE UA",
        "price": "200",
        "picture": "https://encrypted-tbn3.gstatic.com/shopping?q=tbn:ANd9GcQTGjJMmHBF6iD2gn43U8NMHpTHSX-xoB3g3vayzl-0SXzAa9vg&usqp=CAE",
        "id": "0006",
        "lang": "ukrainian" 
    },
    {
        "name": "Marie Claire UA #3",
        "price": "135",
        "picture": "https://encrypted-tbn3.gstatic.com/shopping?q=tbn:ANd9GcQDVsFmTa4xZuJGVrh-cD7dBpFiucnclumysYYIJUx6GpiwjFhs4A9LQRqxoeOQNwU9-TG09a8&usqp=CAE",
        "id": "0007",
        "lang": "ukrainian" 
    },
    {
        "name": "«Локальна історія» №3 ",
        "price": "196",
        "picture": "https://book-ye.com.ua/upload/resize_cache/iblock/471/520_860_1/6a7d1060_ff9d_11e9_8123_000c29ae1566_2f3d428d_f566_11ed_8183_00505684ea69.jpg",
        "id": "0008",
        "lang": "ukrainian" 
    },
    {
        "name": "Megatour #10",
        "price": "100",
        "picture": "https://content.rozetka.com.ua/goods/images/big/276987832.jpg",
        "id": "0009",
        "lang": "ukrainian" 
    },
    {
        "name": "Forbes",
        "price": "150",
        "picture": "https://upload.wikimedia.org/wikipedia/en/d/d2/Forbes_%28magazine%29_cover.jpg",
        "id": "0010",
        "lang": "english" 
    }
]